## SNS does not include headers in their CSV exports, so the next line is informational only.
journal_date,rekening,tegenrekening,tegenrekeing_name,currency_oud,saldo_oud,currency_amount,amount,booking_date,currency_date,type_sns,type,serial,transaction_id,comment,admin_serial
10-04-2020,NL15SNSB0000000000,NL81RABO0000000000,persoon a,,,,EUR,0.00,EUR,1500.00,10-04-2020,10-04-2020,8949,OVB,,,commentary,2
10-04-2020,NL15SNSB0000000000,NL20INGB0000000000,persoon c,,,,EUR,1500.00,EUR,1500.00,10-04-2020,10-04-2020,8949,OVB,,,commentary,2
11-04-2020,NL15SNSB0000000000,NL19ABNA0000000000,coolblue,,,,EUR,3000.00,EUR,-349.00,11-04-2020,11-04-2020,9806,IDB,,,commentary,2
12-04-2020,NL15SNSB0000000000,NL56DEUT0000000000,ikea,,,,EUR,2651.00,EUR,-196.17,12-04-2020,12-04-2020,9806,IDB,,,commentary,2
14-04-2020,NL15SNSB0000000000,NL56INGB0000000000,,,,,EUR,2454.83,EUR,500.00,14-04-2020,14-04-2020,6853,OVB,,,commentary,2
17-04-2020,NL15SNSB0000000000,,,,,,EUR,2954.83,EUR,-35.60,17-04-2020,17-04-2020,7903,BEA,,,commentary,2
